<?xml version="1.0" encoding="utf-8"?>
<!-- Generator: Adobe Illustrator 24.3.0, SVG Export Plug-In . SVG Version: 6.00 Build 0)  -->
<svg version="1.1" id="Layer_1" xmlns="http://www.w3.org/2000/svg" xmlns:xlink="http://www.w3.org/1999/xlink" x="0px" y="0px"
	 viewBox="0 0 91 43" style="enable-background:new 0 0 91 43;" xml:space="preserve">
<style type="text/css">
	.st0{display:none;fill:#001B30;}
	.st1{fill:none;}
	.st2{fill:#939393;}
</style>
<g>
	<path class="st0" d="M59.9,33.2v1.1h2.7v0.5h-2.7v1.6h-0.7v-3.6h4.4v0.5H59.9z"/>
	<path class="st0" d="M68.4,34.5l0,1.8h-0.6l0-1.8l-2.7-1.8H66l2.1,1.4l2.1-1.4h0.9L68.4,34.5z"/>
	<path class="st0" d="M73.5,33.2v1.1h2.7v0.5h-2.7v1.6h-0.7v-3.6h4.4v0.5H73.5z"/>
	<path class="st0" d="M82,34.5l0,1.8h-0.6l0-1.8l-2.7-1.8h0.9l2.1,1.4l2.1-1.4h0.9L82,34.5z"/>
	<g>
		<rect x="7.4" y="8.4" class="st1" width="91" height="23"/>
		<path d="M32.7,26.4v-0.2c1.4-0.3,1.5-0.4,1.5-2.2l0.1-8c-1.5,3.3-4.5,9.6-4.8,10.4h-0.2c-0.2-0.6-2.2-5.3-4.3-10.2
			c-0.2,6.9-0.2,7.8-0.2,8.5c0,1,0.3,1.3,1.6,1.5v0.2h-3.9v-0.2c1.2-0.2,1.5-0.5,1.6-1.5c0.1-0.8,0.1-1.8,0.5-8.4
			c0-0.8,0-1.2-1.7-1.4v-0.2h2.8l4.2,9.4l4.6-9.4h2.8v0.2c-1.6,0.2-1.7,0.4-1.7,2.1l0,7c0,1.8,0.2,1.9,1.7,2.2v0.2H32.7z"/>
		<path d="M45,19c-0.8,0.2-1,0.3-1.4,1.2c-0.5,1.2-1,2.5-2.3,5.8c-1.1,2.8-1.5,3.9-1.8,4.8c-0.1,0.4-0.3,0.5-0.5,0.5
			c-0.5,0-0.9-0.4-0.9-0.7c0-0.1,0.1-0.3,0.4-0.5c0.5-0.4,0.9-0.8,1.3-1.8c0.4-0.9,0.6-1.3,0.7-1.7c0.1-0.2,0.1-0.3,0-0.5
			c-0.7-2-1.6-4.2-2.1-5.5c-0.5-1.1-0.5-1.3-1.5-1.5v-0.2h3.3V19c-0.8,0.2-0.9,0.3-0.6,1.1l1.7,4.7c0.5-1.4,1.4-3.8,1.7-4.7
			c0.2-0.7,0.1-0.8-1-1.1v-0.2H45V19z"/>
		<path d="M51.9,17.6c-0.3-1.2-0.8-2.4-2.5-2.4c-1.2,0-1.8,0.8-1.8,1.8c0,1.1,0.7,1.7,2.3,2.5c2,1,3.1,1.9,3.1,3.7
			c0,2-1.7,3.6-4.2,3.6c-1.1,0-2.1-0.3-2.9-0.6c-0.1-0.4-0.4-2.1-0.5-3l0.7-0.2c0.4,1.2,1.3,3,3.1,3c1.2,0,1.9-0.8,1.9-1.9
			c0-1.2-0.7-1.8-2.2-2.6c-1.9-1-3-1.9-3-3.7c0-1.8,1.4-3.3,4-3.3c1.2,0,2.1,0.3,2.5,0.3c0.1,0.7,0.2,1.5,0.3,2.7L51.9,17.6z"/>
		<path d="M57.9,26.4c-0.3,0.1-0.6,0.2-0.7,0.2c-1.3,0-2.1-0.7-2.1-2.2v-5.1H54L53.9,19l0.5-0.6h0.8v-1.5c0.5-0.4,1.3-0.9,1.8-1.4
			l0.2,0.1c0,0.6-0.1,1.6,0,2.7H59c0.2,0.2,0.1,0.7-0.1,0.8h-1.8v4.5c0,1.4,0.6,1.6,1,1.6c0.3,0,0.6-0.1,0.9-0.2l0.2,0.6L57.9,26.4z
			"/>
		<path d="M64,18.2c2.4,0,4.1,1.8,4.1,4.1c0,2.9-2.1,4.3-4.1,4.3c-2.6,0-4.2-2-4.2-4.1C59.8,19.7,62,18.2,64,18.2z M63.8,18.9
			c-0.9,0-1.7,0.9-1.7,3.1c0,2.3,0.8,3.9,2.1,3.9c0.8,0,1.6-0.6,1.6-3.2C65.8,20.4,65.1,18.9,63.8,18.9z"/>
		<path d="M73.7,26.4h-4.5v-0.6c1-0.1,1.1-0.2,1.1-1.3v-3.9c0-1-0.1-1.1-1-1.2v-0.5c1-0.1,2-0.3,3-0.7c0,0.6,0,1.4,0,2
			c0.7-1.1,1.4-1.9,2.2-1.9c0.7,0,1.1,0.4,1.1,1c0,0.7-0.5,1.2-0.8,1.3c-0.2,0.1-0.4,0-0.5-0.1C74,20.2,73.8,20,73.5,20
			c-0.3,0-0.8,0.3-1.2,1.1v3.4c0,1.1,0.1,1.2,1.4,1.3V26.4z"/>
		<path d="M83.2,24.7c-1.1,1.6-2.5,1.9-3.2,1.9c-2.3,0-3.7-1.8-3.7-3.9c0-1.2,0.5-2.5,1.3-3.2c0.8-0.8,1.8-1.3,2.8-1.3
			c1.7,0,2.9,1.4,2.9,2.9c0,0.3,0,0.6-0.3,0.6c-0.3,0.1-2.8,0.2-4.7,0.3c0,2.1,1.2,3.1,2.5,3.1c0.7,0,1.4-0.3,2.1-0.8L83.2,24.7z
			 M79.9,18.9c-0.8,0-1.4,0.8-1.6,2.3c0.8,0,1.6,0,2.5-0.1c0.3,0,0.4-0.1,0.4-0.4C81.2,19.8,80.8,18.9,79.9,18.9z"/>
	</g>
</g>
<g>
	<polygon class="st2" points="13.3,27.4 9.1,30.1 13.3,32.7 	"/>
	<path class="st2" d="M7.4,23.7l12.7-8V21L7.4,29V23.7z M7.4,21.5l12.7-8l0-5.3l-12.7,8V21.5z"/>
</g>
</svg>
