<?xml version="1.0" encoding="utf-8"?>
<!-- Generator: Adobe Illustrator 24.3.0, SVG Export Plug-In . SVG Version: 6.00 Build 0)  -->
<svg version="1.1" id="Layer_1" xmlns="http://www.w3.org/2000/svg" xmlns:xlink="http://www.w3.org/1999/xlink" x="0px" y="0px"
	 viewBox="0 0 173 66" style="enable-background:new 0 0 173 66;" xml:space="preserve">
<style type="text/css">
	.st0{display:none;fill:#00112C;}
	.st1{fill:none;}
</style>
<path class="st0" d="M23.4,5.1c0.2,0.1,0.3,0.2,0.3,0.3c0,0.1,0,0.2,0,0.3c0,0.2-0.1,0.3-0.2,0.3c-0.2,0-0.3,0.1-0.3,0.2
	c0,0.1,0,0.2-0.1,0.2h-0.1c-0.1,0-0.2,0-0.3-0.1c0,0.1-0.1,0.1-0.2,0.1c0.1,0.1,0.2,0.1,0.3,0.1c0.1,0,0.2,0,0.2,0.1H23
	c0,0-0.1,0.1-0.1,0.1c-0.1,0-0.2-0.1-0.2-0.1c0,0,0,0-0.1,0c0.1,0,0.1,0.1,0.1,0.1c0,0,0.1,0.1,0.2,0.1h0.2c0,0-0.1,0-0.3,0.1
	c-0.2,0-0.3,0.1-0.2,0.1c0.1,0,0.2,0,0.1,0.1c-0.1,0.1-0.2,0.1-0.3,0.1c0,0.1-0.3,0.2-0.9,0.3c-0.6,0.1-1.3,0.1-2,0.2
	c-0.7,0-1.5,0-2.2,0c-0.7,0-1.1-0.1-1.3-0.1c-0.2,1.8-0.4,3.7-0.6,5.5c-0.2,1.8-0.4,3.6-0.5,5.3c-0.2,1.8-0.4,3.6-0.6,5.4
	c-0.2,1.8-0.4,3.7-0.6,5.6c-0.3,1.7-0.5,3.4-0.6,5.1c-0.1,1.7-0.3,3.5-0.7,5.3v-0.1c0,0-0.1,0.1-0.1,0.3c0-0.1-0.1-0.2-0.1-0.3
	c0-0.1,0-0.2,0-0.3v0.1c-0.1,0-0.1-0.1-0.1-0.1c0,0,0-0.1-0.1-0.2v0.2c0,0,0-0.1-0.1-0.1c0,0,0-0.1,0-0.2c0-0.1-0.1-0.1-0.1-0.2
	c0,0-0.1-0.1-0.1-0.3C12,38.7,11.9,38.9,12,39c0.1,0.1,0.1,0.2,0,0.3c-0.1,0-0.1-0.1-0.1-0.1c0,0,0-0.1-0.1-0.2v0.3
	c0,0-0.1-0.1-0.1-0.3s-0.1-0.2-0.2-0.2h-0.8c-0.2,0-0.4,0-0.6,0.1c-0.2,0-0.3,0-0.4-0.1c0.1,0.1,0.2,0.2,0.2,0.3c0,0.1,0,0.1,0,0.2
	c-0.1,0-0.1,0-0.1,0c0,0,0,0-0.1,0v-0.2c0,0.1-0.1,0.1-0.1,0.2c0,0,0,0,0,0.1v-0.1H9.7v-0.1c0,0-0.1-0.1-0.2-0.2H9.5l0.1,0.1
	c0,0,0,0.1,0.1,0.1l-0.1,0.1v-0.1H9c-0.1,0-0.2,0-0.3-0.1c0,0-0.1,0-0.1,0.1c0,0,0,0,0.1,0l-0.1-0.1c0,0,0,0.1,0.1,0.2
	c-0.1,0-0.1-0.1-0.2-0.1c-0.1-0.1-0.1-0.2-0.2-0.3c0,0.1-0.1,0.2-0.3,0.2c-0.2,0-0.4,0-0.6,0C7.2,39,7,39,6.8,38.9
	c-0.2,0-0.4,0-0.5,0s-0.1,0.1-0.1,0.2c0.1,0.1,0.1,0.1,0,0.2v-0.1l-0.1-0.1c0,0.1,0,0.2,0,0.2c0,0,0-0.1-0.1-0.2
	c0-0.1-0.1-0.2-0.1-0.3c-0.1,0.1-0.1,0.2-0.1,0.3c0.1,0.1,0.2,0.1,0.2,0.2c-0.1,0-0.2-0.1-0.3-0.2c0-0.1-0.1-0.2-0.1-0.3
	c-0.1-0.2-0.2-0.4-0.3-0.7c-0.1-0.3-0.1-0.6-0.1-0.8c0.1,0.1,0.1,0.1,0.1,0c0-0.1,0.1-0.2,0.1-0.3l-0.1,0.2l-0.1-0.1
	c0-0.1,0-0.2-0.1-0.3c0-0.1,0-0.2,0.1-0.3v-0.2c0-0.2-0.1-0.3-0.1-0.4c0-0.1,0-0.2,0.1-0.4c0.1-0.7,0.1-1.3,0.1-1.9
	c0-0.6,0.1-1.3,0.2-2c0.2-0.2,0.3-0.5,0.3-0.9c-0.1,0.1-0.1,0.2-0.1,0.3c0,0.1,0,0.2-0.1,0.3c0,0.1,0,0.1-0.1,0.1c0,0-0.1,0-0.1-0.1
	c0,0,0.1,0,0.1-0.1c0,0,0,0,0-0.1c0,0,0-0.1,0.1-0.1v-0.6c0-0.1,0-0.1,0.1-0.2c0.1-0.1,0.1-0.2,0.1-0.2c0-0.1,0-0.2,0-0.3v-0.1
	c0,0,0.1-0.2,0.1-0.4C6,29.3,6,29,6,28.7c0-0.3,0.1-0.6,0.1-0.9c0-0.3,0.1-0.5,0.1-0.6c0.1,0,0.2-0.2,0.2-0.4
	c0.1-0.2,0.1-0.5,0.1-0.7c0-0.3,0.1-0.5,0.1-0.7c0-0.2,0-0.4,0.1-0.4c0-0.5,0-1,0-1.7c0-0.7,0.2-1.2,0.4-1.6c0,0,0.1-0.1,0.1-0.1
	c0-0.1-0.1-0.3-0.1-0.5C7,21.3,7,21.3,7,21.3c0-0.1,0-0.3,0-0.4C7,20.8,7,20.8,7,20.7v0.1c0-0.2,0-0.5,0-0.9c0-0.4,0.1-0.8,0.1-1.1
	c0.1-0.4,0.1-0.8,0.2-1.1c0.1-0.3,0.1-0.6,0.2-0.9c-0.1-0.1-0.1-0.3,0-0.5c0.2-1.6,0.4-3.1,0.4-4.7S8,8.4,8.1,6.9
	c-0.3,0-0.5,0-0.7,0s-0.3,0-0.4,0C7,6.8,6.9,6.8,6.8,6.8c-0.1,0-0.3-0.1-0.6-0.2h0.1c-0.1,0-0.3,0-0.4,0c-0.1,0-0.3,0.1-0.4,0.1
	c0,0-0.1-0.1-0.1-0.1H4.8c0,0-0.1-0.1-0.1-0.2c-0.2,0-0.4,0-0.5-0.1c-0.1,0-0.3,0-0.6,0.1c0.1-0.1,0.1-0.1,0-0.1
	c-0.1,0-0.2,0-0.3,0.1c-0.1,0-0.2,0.1-0.3,0.1c0,0,0-0.1,0.2-0.2C3,6.3,2.8,6.3,2.7,6.3c0,0-0.2,0-0.5,0C2.1,6.3,2,6.3,1.8,6.2
	C1.6,6.1,1.4,6,1.2,6.1c0.1,0,0.2,0,0.1,0.1C1.1,6.2,1,6.3,0.9,6.3c-0.1-0.1-0.1-0.2,0-0.2H0c0,0,0.1-0.1,0.1-0.2
	c0-0.1,0.1-0.2,0.2-0.2c0,0-0.1-0.1-0.2-0.1c0.1-0.1,0.2-0.2,0.4-0.1c0.2,0.1,0.3,0.1,0.4,0C0.8,5.7,0.7,5.6,0.6,5.6
	c-0.1,0-0.2-0.1-0.3-0.2c0.2,0,0.4-0.1,0.5-0.3C0.9,5,1.1,4.9,1.4,4.8c0.4-0.1,0.8-0.2,1.4-0.3c0.6-0.1,1.2-0.2,1.8-0.2
	c0.6,0,1.3-0.1,1.9-0.1c0.7,0,1.3-0.1,1.9-0.1C8.5,4,8.6,3.8,8.7,3.7c0.1-0.1,0.2-0.2,0.4-0.3c0.3-0.1,0.6,0,0.9,0.1
	c0.4,0.1,0.7,0.2,1,0.2c0.8,0.1,1.6,0.1,2.3,0.2c0.7,0,1.4,0,2.1,0.1c0.1,0,0.2,0.1,0.3,0.2c0.1,0.1,0.2,0.2,0.2,0.2
	c0.4,0,0.9,0,1.6,0.1c0.7,0,1.3,0,2,0.1c0.7,0,1.4,0.1,2,0.2c0.7,0.1,1.2,0.1,1.6,0.2c0,0,0.1,0,0.2,0.1C23.5,5,23.5,5.1,23.4,5.1z
	 M7.4,35.2c0.1-0.1,0.1-0.2,0.1-0.4c0-0.1,0-0.2,0.1-0.3c-0.1,0-0.1,0-0.1,0.1s0,0.1-0.1,0.1c0,0-0.1,0-0.1-0.1V35
	C7.3,35.1,7.3,35.2,7.4,35.2z M7.1,34.7C7.1,34.7,7.1,34.7,7.1,34.7C7,34.5,7,34.4,7,34.4v0.1c0,0.1,0,0.3-0.1,0.4
	c0,0.1,0,0.2,0.1,0.4v-0.1c0.1,0,0.2,0,0.2-0.1V35H7.1c0-0.1,0-0.1,0-0.1C7.1,34.8,7.1,34.8,7.1,34.7z M7.3,33.9H7.2
	c0,0,0,0.1-0.1,0.1c0,0,0,0,0,0.1c0,0,0.1,0,0.1,0c0.1,0,0.1,0,0.2,0v-0.3H7.3V33.9z M5.7,32.8c0.1,0,0.1-0.1,0.1-0.3
	c0-0.2-0.1-0.3-0.1-0.4c0,0.2,0,0.3-0.1,0.4C5.6,32.5,5.7,32.6,5.7,32.8z M7.8,35.5L7.8,35.5l-0.1,0.2v0.1v0.1v0.2h0.1V35.5
	L7.8,35.5c0-0.1,0-0.1,0-0.2c0,0,0-0.1-0.1-0.1c0,0,0,0.1-0.1,0.1C7.7,35.3,7.7,35.4,7.8,35.5L7.8,35.5z M7.6,34.7
	c0,0.2,0,0.3,0,0.3h0.1v-0.1c0,0,0-0.1,0.1-0.1c-0.1-0.2,0-0.4,0.1-0.5H7.7C7.7,34.6,7.7,34.7,7.6,34.7z M7,33.9
	c0-0.1,0-0.1,0.1-0.2c0-0.1,0-0.2-0.1-0.3c0,0.1,0,0.2-0.1,0.3C7,33.7,7,33.8,7,33.9z M7.3,33.2c0.2-0.1,0.2-0.2,0.1-0.3h0.1v-0.1
	C7.3,33,7.3,33,7.3,33V33.2z M6.6,33.9C6.6,33.9,6.6,33.9,6.6,33.9c0.1-0.1,0.1-0.1,0.1,0c0-0.1,0-0.1,0.1-0.2c0,0,0-0.1-0.1-0.1
	H6.6h0.1c0,0,0,0,0-0.1v-0.1c0,0-0.1,0-0.1,0.1v0.1C6.6,33.7,6.6,33.8,6.6,33.9z M8,35.7C8,35.7,8,35.7,8,35.7l0.1-0.1v-0.2
	C8,35.5,8,35.6,8,35.7z M7.5,35.4c-0.1-0.1-0.1-0.2-0.1-0.2H7.3l0.1,0.2H7.5z M6.8,35.5v-0.1c0-0.1,0-0.1-0.1-0.1
	C6.8,35.4,6.8,35.4,6.8,35.5c-0.1,0.1,0,0.2,0,0.3V35.5z M6.9,35.4c0,0,0,0.1-0.1,0.2c0,0,0,0.1,0.1,0.2V35.4z M8,36L8,36L8,36.1
	c0,0.1,0,0.1,0.1,0.1V36z M12.1,38.8c0.1,0,0.1,0,0.1,0.1c0,0,0,0.1,0.1,0.1c0,0,0-0.1-0.1-0.1C12.1,38.9,12.1,38.9,12.1,38.8
	L12.1,38.8L12.1,38.8z M7.4,35.2c0-0.1,0-0.2,0-0.3V35.2z M8.7,39.3L8.7,39.3L8.7,39.3z M7.6,34.7L7.6,34.7L7.6,34.7z M8.7,39.3
	C8.7,39.2,8.7,39.2,8.7,39.3C8.8,39.2,8.8,39.2,8.7,39.3L8.7,39.3z M8.7,39.2L8.7,39.2L8.7,39.2z"/>
<path class="st0" d="M50,23.5c-0.1,0.2-0.2,0.3-0.3,0.4c-0.1,0.1-0.2,0.2-0.3,0.5c0.1,0,0.1,0,0.2-0.1c0,0.1,0,0.1-0.1,0.2
	c0,0.1-0.1,0.1-0.1,0.2c0,0.1-0.1,0.1-0.1,0.1h0.2l-0.6,0.8c0.1,0,0.1,0,0.2-0.1c0.1-0.1,0.1-0.1,0.1-0.1c0,0.2-0.1,0.3-0.3,0.5
	c0.1,0,0.2-0.1,0.2-0.1c0,0,0.1-0.1,0.2-0.2c-0.2,0.3-0.5,0.7-0.8,1.2c-0.4,0.5-0.7,0.9-0.9,1.3c0.1,0,0.1,0,0.1,0.1
	c0,0-0.1,0.2-0.4,0.5c0.1,0,0.2-0.1,0.4-0.4c0.2-0.2,0.4-0.4,0.4-0.5c0-0.1-0.1-0.1-0.1-0.1h-0.1l0.9-1.2v0.2c0,0,0,0.1-0.1,0.1
	c0,0,0,0,0,0.1v0.1c0,0,0.1,0,0.2-0.1c0.1-0.1,0.1-0.1,0.2-0.2c-0.1,0.2-0.3,0.4-0.5,0.7c-0.1,0.2-0.3,0.4-0.5,0.6
	c0,0-0.1,0.1-0.2,0.3c-0.1,0.1-0.2,0.3-0.4,0.5c-0.1,0.2-0.3,0.4-0.5,0.6c-0.1,0.1-0.3,0.2-0.4,0.2c0,0.1,0,0.2-0.1,0.2v0.1
	c0,0,0,0.1,0,0.1c0,0,0.1,0,0.1,0.1c0,0,0.2-0.2,0.4-0.4c0.2-0.2,0.3-0.3,0.4-0.3c0.1,0,0.1-0.1,0.1-0.2c0-0.1,0-0.1,0-0.1
	c0.1-0.1,0.2-0.2,0.3-0.3c0.1-0.2,0.2-0.3,0.3-0.3c-0.2,0.4-0.4,0.8-0.7,1.1c-0.2,0.3-0.4,0.6-0.7,0.9c0,0-0.1,0.1-0.2,0.2
	c0,0.1-0.1,0.1-0.1,0.1c-0.1,0.1-0.2,0.2-0.2,0.4c-0.1,0-0.2,0.2-0.4,0.5c-0.2,0.2-0.4,0.5-0.6,0.8c-0.2,0.3-0.4,0.5-0.6,0.8
	c-0.2,0.2-0.3,0.4-0.3,0.4v-0.1c0-0.1,0-0.2,0.1-0.2c0.1,0,0.2-0.1,0.2-0.3c-0.1,0.1-0.2,0.3-0.3,0.4c-0.1,0.1-0.2,0.2-0.3,0.3
	c0,0,0.1,0,0.1,0.1c0,0.1-0.1,0.4-0.4,0.7c-0.3,0.3-0.6,0.6-1,1c-0.4,0.3-0.8,0.6-1.1,0.9c-0.4,0.3-0.6,0.5-0.7,0.6
	c-0.5,0.3-1,0.6-1.6,0.8c-0.6,0.2-1.1,0.3-1.7,0.3c-1,0-1.9-0.4-2.6-1.1c-0.7-0.8-1.1-2-1.1-3.8c0-1.1,0.1-2.3,0.2-3.6
	c0.2-1.3,0.3-2.6,0.3-3.8c0-0.3,0-0.6,0-0.8c0-0.3,0-0.6-0.1-0.9c-0.8,0.7-1.5,1.6-2.3,2.6c-0.7,1-1.4,2-2,3c-0.7,1-1.3,2-1.8,2.9
	c-0.5,0.9-1,1.6-1.4,2.2v0.1c0,0.2-0.2,0.5-0.5,0.9c-0.3,0.3-0.5,0.6-0.6,0.6c-0.1,0.3-0.2,0.6-0.3,1c-0.1,0.4-0.2,0.7-0.2,0.9
	c-0.1,0-0.2-0.1-0.2-0.3v-0.2c0,0.1-0.1,0.2-0.1,0.3c0,0.1,0,0.2-0.1,0.2v-0.3c0,0.1-0.1,0.1-0.2,0.2c-0.1,0-0.1,0.1-0.1,0.1
	c0,0-0.1-0.1-0.1-0.2v-0.2c0-0.1-0.1-0.1-0.2-0.1c-0.1,0-0.2,0-0.2-0.1v0.1L23.6,38c0,0-0.1-0.2-0.1-0.4l-0.1,0.2l-0.2-0.2
	c0,0.1,0,0.1-0.1,0.2c0,0,0,0.1,0,0.2c-0.1,0-0.1-0.1-0.2-0.2v0.1c0,0-0.1,0.1-0.1,0.1c0,0,0.1,0.1,0.1,0.1c0,0,0,0.1-0.1,0.1H23
	c0,0-0.1,0-0.1-0.1c-0.1,0-0.1,0.1-0.1,0.4c0,0-0.1,0-0.3-0.1c-0.2-0.1-0.3-0.1-0.3-0.2c0-0.1,0.1-0.1,0.3-0.2
	c0.2,0,0.3-0.1,0.3-0.1h-0.3c-0.2,0-0.3,0-0.3-0.1c0,0,0,0.1-0.1,0.1c0,0,0,0,0,0.1c0,0.1,0,0.1,0,0.2c0,0,0.1,0.1,0.1,0.1v0.1
	c0,0-0.1,0-0.1-0.1c0,0,0-0.1-0.1-0.1c0,0.1,0,0.2-0.1,0.2c0,0-0.1-0.1-0.1-0.2v-0.1c0,0-0.1-0.1-0.1-0.2c0-0.1,0-0.2-0.1-0.2
	c-0.1,0-0.1,0.1-0.1,0.2c0,0.1,0,0.1,0,0.2c-0.1-0.1-0.2-0.2-0.2-0.3c0,0.2,0,0.3,0,0.4c0,0.1,0.1,0.2,0.1,0.3c-0.1,0-0.1,0-0.2-0.1
	c0-0.1-0.1-0.2-0.2-0.2V38c0,0,0-0.1-0.1-0.1c0-0.1-0.1-0.1-0.1-0.2c0,0.1-0.1,0.1-0.1,0.2c0,0.1,0,0.3,0.1,0.4c0,0.1,0,0.2,0,0.3
	c0,0.1-0.1,0-0.2-0.1c0-0.2-0.1-0.3-0.1-0.4c0,0-0.1-0.1-0.2-0.2c-0.1-0.1-0.1-0.2-0.1-0.2h-0.2c0,0.2,0,0.3-0.1,0.3
	c-0.1,0-0.1,0-0.1,0.2c0,0,0,0.1,0.1,0.2c0,0.1,0,0.1,0,0.2c0,0,0.1,0.1,0.1,0.1c-0.2-0.1-0.4-0.5-0.6-1.1c-0.2-0.6-0.3-1.3-0.2-2.2
	c0.3-2.5,0.6-5.1,1-7.7c0.4-2.7,0.8-5.3,1.2-8c0.4-2.7,0.8-5.3,1.1-7.9c0.4-2.6,0.7-5.1,1.1-7.5c0.1-0.5,0.2-1,0.4-1.6
	c0.2-0.5,0.5-1,0.8-1.4c0.4-0.4,0.8-0.7,1.2-1C26.8,0.2,27.3,0,27.8,0c0.3,0,0.7,0,1.1,0c0.4,0,0.8,0,1.2,0.1c0.4,0,0.7,0.1,0.9,0.3
	c0.2,0.1,0.4,0.4,0.4,0.7c0.2,0.3,0.2,1,0.1,2.2s-0.3,2.6-0.6,4.2c-0.3,1.6-0.6,3.5-1.1,5.5c-0.4,2-0.8,4-1.2,6
	c-0.4,2-0.8,3.8-1.2,5.6c-0.4,1.8-0.6,3.3-0.8,4.6c0.5-0.7,1-1.6,1.6-2.5c0.6-0.9,1.2-1.8,1.9-2.6c0.7-0.8,1.5-1.5,2.3-2
	c0.8-0.6,1.8-0.8,2.8-0.8c0.9,0,1.6,0.2,2.2,0.5c0.6,0.3,1,0.8,1.3,1.3c0.3,0.5,0.5,1.2,0.6,1.9c0.1,0.7,0.2,1.5,0.2,2.3
	c0,1.1-0.1,2.3-0.3,3.5c-0.1,1.2-0.3,2.3-0.4,3.2c0,0.1-0.1,0.2-0.1,0.4c0,0.1,0,0.2,0.1,0.2c0.3,0,0.7-0.4,1.4-1.1
	c0.6-0.7,1.3-1.6,2.2-2.7c0.8-1,1.7-2.2,2.6-3.4c0.9-1.2,1.7-2.4,2.5-3.5l0.2-0.1c0-0.1,0-0.1,0.1-0.1c0,0,0.1,0,0.1,0.1
	c0,0,0,0,0.1,0c0-0.1,0-0.2,0.1-0.2c0.1,0,0.1,0,0.1,0.1c0,0,0,0.1,0.1,0.1c0.2-0.1,0.3-0.2,0.4-0.4v0.1c0.1,0,0.1,0,0.2-0.1
	c0,0,0,0.1,0.1,0.1c0,0,0.1,0,0.1,0.1l0.3-0.1c0.1,0,0.3-0.1,0.4-0.2V23l0.1-0.1c0,0,0,0,0.1-0.2v0.3c0.1,0,0.1,0.1,0.2,0.2
	C49.8,23.5,49.9,23.5,50,23.5z M46.6,28.7c0-0.1,0.1-0.2,0.1-0.3c0.1-0.1,0.1-0.2,0.2-0.3c0,0,0-0.1-0.1-0.1c-0.1,0-0.2,0.1-0.3,0.2
	c-0.1,0.1-0.1,0.2-0.2,0.3L46.1,29c0,0-0.1,0-0.1-0.1c-0.1-0.1-0.1,0-0.2,0.2c-0.1,0.2-0.1,0.3-0.1,0.5c0.1,0,0.2-0.2,0.2-0.4
	c0,0,0.1,0,0.3-0.1C46.4,29,46.5,28.9,46.6,28.7z M35,32.9c0.1,0,0.2-0.1,0.2-0.4c0-0.3,0-0.5,0-0.6c-0.1,0-0.1,0.1-0.1,0.3
	c0,0.2,0,0.3-0.1,0.3c0-0.2,0-0.3,0-0.4c0-0.1,0-0.3,0.1-0.5l-0.1-0.1c0,0,0,0-0.1,0.1c0,0.1-0.1,0.1-0.1,0.1
	c-0.1,0.1-0.1,0.1,0,0.2c0.1,0,0.1,0.1,0,0.2v0.2c0,0.1,0,0.2,0,0.4c0,0.1,0.1,0.2,0.1,0.3c-0.1,0.1-0.1,0.2,0.1,0.3V33
	C35.1,32.9,35,32.9,35,32.9z M48.2,26.7c0.1-0.1,0.1-0.2,0.2-0.4c0.1-0.2,0.2-0.3,0.2-0.4c-0.4,0.1-0.5,0.3-0.5,0.6
	C48.1,26.5,48.1,26.6,48.2,26.7z M35.6,30.6c0-0.3,0-0.4,0-0.3c0,0.1,0.1,0,0.2-0.1c0,0,0-0.1-0.1-0.1c0,0,0,0,0,0.1
	c0,0.1,0,0.1-0.1,0.1c0-0.1-0.1-0.1-0.2,0c-0.1,0-0.1,0.1-0.1,0.2c0,0.1,0.1,0.2,0.1,0.2H35.6z M35.6,30.8c0,0-0.1,0-0.2,0.1
	c0,0-0.1,0.1-0.1,0.1c0,0.1,0.1,0.2,0.1,0.2c0,0,0.1,0,0.1,0C35.6,31.2,35.6,31,35.6,30.8L35.6,30.8z M35.4,32.7
	c0.1,0,0.1,0,0.1-0.1c0-0.1-0.1-0.2-0.1-0.2c0-0.1,0-0.1,0.1-0.1c0,0,0-0.1-0.1-0.2h-0.1v0.4C35.4,32.5,35.4,32.6,35.4,32.7z
	 M35.3,31.4c0-0.1,0-0.1-0.1-0.2c0-0.1,0-0.1,0-0.2c-0.1,0.2-0.1,0.3-0.1,0.3c0,0,0,0.1,0.1,0.1C35.3,31.4,35.3,31.4,35.3,31.4z
	 M35.4,29.6c-0.1,0.3-0.2,0.5-0.1,0.4C35.4,30,35.4,29.9,35.4,29.6C35.4,29.6,35.4,29.6,35.4,29.6z M35.4,33.8
	c0-0.1-0.1-0.2-0.2-0.2C35.3,33.6,35.3,33.7,35.4,33.8z M47,28.2c0,0,0.1-0.1,0.2-0.3C47.2,27.9,47.1,28,47,28.2z M34.9,33.4v0.1
	c0,0.1,0,0.1,0.1,0.1C35.1,33.5,35,33.4,34.9,33.4z M34.7,34.7c0,0,0,0.1,0.1,0.2v-0.1c0-0.1,0-0.1-0.1-0.2c0-0.1-0.1-0.2-0.2-0.2
	C34.7,34.5,34.7,34.6,34.7,34.7z M45.8,29.9c0,0-0.1,0.1-0.1,0.1c0,0,0,0-0.1,0.1c0,0-0.1,0.1-0.1,0.1
	C45.7,30.2,45.8,30.1,45.8,29.9z M47.1,27.2c0,0-0.1,0.1-0.1,0.1c0,0-0.1,0.1-0.1,0.2c0,0,0.1-0.1,0.1-0.1c0,0,0-0.1,0.1-0.1
	C47.1,27.3,47.1,27.3,47.1,27.2L47.1,27.2z M34.8,34.9c0,0,0,0.1,0,0.1V34.9z"/>
<path class="st0" d="M63.2,29.6c-0.1,0.1-0.2,0.3-0.3,0.6c-0.1,0.3-0.3,0.4-0.4,0.4c0-0.1-0.1,0-0.2,0.1c-0.1,0.1-0.2,0.2-0.2,0.3
	c-0.1,0.2-0.2,0.3-0.2,0.4c0,0.1-0.1,0.2-0.2,0.3c0,0,0,0.1-0.1,0.2c-0.1,0.1-0.1,0.1-0.2,0.1c0,0.1-0.1,0.2-0.2,0.3
	c-0.1,0.1-0.1,0.2-0.2,0.3c-0.3,0.3-0.6,0.7-0.8,1c-0.2,0.3-0.4,0.5-0.6,0.7c-0.2,0.2-0.3,0.3-0.4,0.4c-0.1,0.1-0.2,0.1-0.3,0.2
	c-0.1,0-0.2,0.1-0.3,0.3c-0.3,0.3-0.5,0.5-0.7,0.6c-0.2,0.1-0.5,0.2-0.9,0.4c-0.5,0.1-0.7,0.2-0.8,0.2c-0.1,0-0.2-0.1-0.3-0.1
	c-0.7,0.2-1.4,0.1-2-0.4c-0.6-0.5-1-1.1-1.3-1.7c-0.2-0.4-0.3-1-0.4-1.6c-0.1-0.7-0.1-1.4-0.2-2.1c0-0.8-0.1-1.5-0.1-2.2
	c0-0.8,0.1-1.5,0.1-2.1c-0.1,0.1-0.1,0.2-0.2,0.3c0,0.1-0.1,0.2-0.1,0.2c-0.2,0.7-0.5,1.4-0.9,2.3c-0.4,0.8-0.8,1.7-1.3,2.5
	c-0.4,0.8-0.8,1.4-1.2,1.9c-0.4,0.5-0.7,0.8-0.8,0.7c-0.2,0.2-0.3,0.3-0.4,0.5c-0.1,0.1-0.2,0.3-0.4,0.4c-0.7,0.3-1.5,0.3-2.2-0.3
	c-0.4-0.3-0.7-0.6-0.8-1c-0.1-0.4-0.2-0.8-0.2-1.3c0.1-1.6,0.4-3.2,1-4.6c0.6-1.5,1.2-2.8,1.9-3.9c0.5-0.8,1.1-1.6,1.8-2.4
	c0.7-0.8,1.6-1.4,2.6-1.9c0.6-0.3,1.2-0.3,2-0.2c0.8,0.1,1.5,0.4,2,0.7c0.2,0.1,0.4,0.3,0.3,0.4c0,0.1-0.1,0.2-0.1,0.2
	c-0.1,0.2-0.3,0.3-0.5,0.2c0,0.2,0,0.3,0.1,0.3c0.1,0,0.1,0.1,0.1,0.2c0,0.2-0.1,0.3-0.1,0.4c0,0.1,0,0.2,0,0.4c0,0.1,0,0.1,0,0.2
	c0,0,0,0.2-0.1,0.5c0,0.8,0,1.9,0,3.1c0,1.2,0,2.4,0.1,3.6c0,1.2,0.1,2.2,0.2,3.1c0.1,0.9,0.2,1.6,0.4,1.9c0.2,0.1,0.5,0,0.9-0.3
	c0.5-0.4,1-0.9,1.5-1.5c0.6-0.6,1.2-1.3,1.8-2.1c0.7-0.8,1.3-1.6,1.8-2.3c0.6-0.8,1.1-1.5,1.5-2.1c0.5-0.6,0.8-1.1,0.9-1.4
	c0.1-0.1,0.2-0.3,0.3-0.5c0.1-0.2,0.3-0.4,0.4-0.5c0.1-0.1,0.2-0.1,0.3-0.1c0.1,0,0.2,0.1,0.3,0.4c0,0.1,0.1,0.2,0.2,0.3
	c0.1,0.1,0.1,0.2,0.2,0.4c0.1,0.6,0,1.1-0.2,1.7l-0.2,0.5C65.1,27,65,27.1,65,27.2c0.1,0.1,0,0.2-0.2,0.4c-0.1,0.2-0.2,0.3-0.3,0.5
	c-0.1,0.1-0.2,0.2-0.3,0.4v-0.1c0.1-0.1,0.1-0.2,0.2-0.3c-0.1,0-0.1-0.1,0-0.2c0,0.1-0.1,0.1-0.1,0.2c0,0-0.1,0-0.1,0.1
	c0,0,0,0.1-0.1,0.2c0,0-0.1,0-0.1-0.1l-0.5,0.7c-0.2,0.2-0.4,0.4-0.4,0.5c0,0.1-0.2,0.3-0.4,0.6l0.1,0.1c0.1-0.1,0.1-0.2,0.2-0.3
	c0.1-0.1,0.2-0.2,0.3-0.2L63.2,29.6L63.2,29.6z M46.8,33c0.1,0.1,0.1,0.1,0.2-0.1c1-1.8,1.9-3.5,2.7-5.1c0.8-1.6,1.8-3.3,2.8-5.1
	c0-0.2,0.2-0.5,0.4-0.8c0.2-0.3,0.4-0.5,0.5-0.6c-0.3,0.2-0.6,0.4-0.9,0.8c-0.4,0.3-0.7,0.8-1.1,1.2c-0.3,0.5-0.6,0.9-1,1.5
	c-0.3,0.5-0.6,1-0.8,1.6c-0.5,1-1.1,2.1-1.6,3.3C47.5,31,47.1,32.1,46.8,33z M61.8,30c-0.1,0-0.1-0.1,0.1-0.2
	c0.1-0.1,0.2-0.2,0.2-0.2c0,0,0.1-0.1,0.1-0.2c0,0,0-0.1-0.1-0.1L62,29.5c-0.1,0.1-0.2,0.2-0.2,0.3c0.1-0.1,0.1-0.1,0.1-0.1
	c0,0-0.1,0.1-0.2,0.3c0-0.1,0,0-0.2,0.3c-0.2,0.2-0.3,0.5-0.4,0.6h0.1c0,0-0.1,0.1-0.1,0.1c0.1,0,0.2-0.1,0.3-0.2
	c0.1-0.2,0.2-0.3,0.2-0.4c0,0,0.1,0,0.2,0c0.1-0.1,0.1-0.2,0.1-0.2C61.8,30.1,61.8,30.1,61.8,30z M61.8,30.8
	c0.1-0.1,0.2-0.1,0.2-0.2c0-0.1,0.1-0.1,0.2-0.2c0.1-0.2,0.1-0.2,0.1-0.2c0,0,0,0-0.1-0.1c-0.1,0.1-0.2,0.2-0.3,0.3
	c-0.1,0.1-0.2,0.2-0.3,0.4c0-0.1-0.1-0.1-0.1-0.1c0,0,0,0.1-0.1,0.1h-0.1v0.1l0.1,0.1V31c0,0,0.1-0.1,0.1-0.2
	c0.1-0.1,0.1-0.2,0.2-0.2L61.8,30.8z M50.6,27.4L50.6,27.4l-0.1-0.1c0,0-0.1,0.1-0.1,0.1l0.2-0.3V27c-0.1,0.1-0.1,0.1-0.1,0.2
	c0,0,0-0.1-0.1-0.1c0-0.1,0,0-0.1,0.1c0,0.1-0.1,0.2-0.2,0.3c0,0,0.1,0,0.2-0.1l-0.1,0.2l-0.5,0.5c0.1,0,0.1,0,0.1,0
	c0-0.1,0.1-0.1,0.2-0.1L50.6,27.4z M61.5,31.9c0.1-0.2,0.2-0.3,0.3-0.3c-0.1-0.1-0.1-0.1,0-0.2c0.1,0,0.1-0.1,0-0.2l-0.1,0.1
	c0.1-0.1,0.1-0.2,0.1-0.2c0,0,0.1-0.1,0.1-0.3c-0.1,0.2-0.2,0.3-0.3,0.4c-0.1,0.1-0.2,0.2-0.3,0.3c0.1,0,0.1,0.1,0,0.2
	C61.3,31.8,61.4,31.8,61.5,31.9c-0.1,0-0.2,0-0.2,0.1c-0.1,0-0.1,0.1,0,0.2L61.5,31.9z M64.1,28.4L64.1,28.4l0.2,0.1
	c-0.1,0.1-0.2,0.2-0.2,0.3c0,0.1-0.1,0.1-0.2,0.2c0.1,0,0.1,0,0,0.1c-0.1,0-0.1,0-0.1,0c0,0.1,0,0.1,0,0.2c0,0-0.1,0-0.1,0
	c0,0,0-0.1,0.1-0.2C63.8,28.8,63.9,28.6,64.1,28.4z M61.8,29.4c0.1,0.1,0.1,0,0.2-0.2c0.1-0.2,0.2-0.3,0.2-0.4c-0.1,0-0.2,0-0.3,0.2
	C61.8,29.2,61.8,29.4,61.8,29.4z M62.4,28.5c0,0,0,0.1,0.1,0.1c0,0,0,0.1,0,0.1c0,0,0.1,0,0.3-0.2c0.2-0.2,0.3-0.3,0.3-0.3
	c0,0-0.1-0.1-0.1-0.1c-0.1,0-0.2,0-0.2,0.1c-0.1,0.1-0.2,0.2-0.2,0.3H62.4z M51.2,26c0.1-0.1,0.1-0.2,0.1-0.3c0-0.1,0.1-0.2,0.2-0.3
	v-0.1c0,0-0.1,0.1-0.1,0.1c0,0-0.1,0.1-0.1,0.1s-0.1,0-0.1,0.1c0,0,0,0-0.1,0c0,0.1-0.1,0.1-0.1,0.2c0,0,0,0.1-0.1,0.2L51.2,26
	C51.1,26,51.1,26,51.2,26z M50.9,28.1c0.1,0.1,0.2,0.1,0.2-0.1c0.1-0.1,0.1-0.2,0.2-0.3c-0.1,0-0.1,0.1-0.2,0.2
	C51.1,28,51,28.1,50.9,28.1z M61.3,31.3c0.1,0,0.2,0,0.3-0.2L61.5,31c-0.1,0.1-0.1,0.1-0.1,0.2C61.3,31.2,61.3,31.3,61.3,31.3z
	 M51.1,26.5c0,0,0.1-0.1,0.1-0.1c0.1,0,0.1,0,0.2-0.1l-0.1-0.1c0,0,0.1,0,0.1-0.1l0.1-0.1c-0.1,0-0.2,0.1-0.3,0.3
	C51.1,26.5,51.1,26.5,51.1,26.5z M50.8,28.1c0-0.1,0.1-0.1,0.2-0.2c0.1-0.1,0.1-0.1,0.2-0.2L50.8,28.1L50.8,28.1z M50.7,27.9
	L50.7,27.9c0.1-0.1,0.2-0.2,0.2-0.2c0,0,0-0.1-0.1-0.1c0,0,0-0.1,0-0.1c0.1-0.1,0.1-0.1,0,0C50.8,27.7,50.8,27.8,50.7,27.9
	L50.7,27.9z M62.4,30.6c0-0.1,0.1-0.1,0.1-0.1c0.1-0.1,0.1-0.1,0.2-0.2c0.1-0.1,0.1-0.1,0.2-0.2l-0.3,0.3c0,0,0,0.1-0.1,0.1
	C62.4,30.5,62.4,30.5,62.4,30.6z M52,24.5c0.1,0.1,0.2,0,0.3-0.3l-0.1,0.1c-0.1,0.1-0.1,0.1-0.1,0.1L52,24.5z M50.1,28.8
	c0,0,0.1,0,0.1-0.1c0.1-0.1,0.1-0.2,0.1-0.2c0,0-0.1,0-0.1,0.1C50.1,28.7,50.1,28.8,50.1,28.8z M50.3,27.4c-0.1,0.1-0.2,0.2-0.2,0.2
	v0.1c0,0,0.1-0.1,0.2-0.2C50.3,27.4,50.3,27.4,50.3,27.4z M50.4,28.1c0.1,0,0.1-0.1,0.1-0.1V28c0.1-0.1,0.1-0.2,0-0.2
	C50.5,27.9,50.4,28,50.4,28.1z M61.2,31.4c0.1,0,0.1,0,0.1,0v-0.1L61.2,31.4z M49.8,28.2c0,0,0.1,0,0.1-0.1v-0.1
	C49.9,28.2,49.8,28.2,49.8,28.2z M64.5,27.9C64.5,27.9,64.4,28,64.5,27.9L64.4,28C64.5,28,64.5,27.9,64.5,27.9z"/>
<path class="st0" d="M100.2,14.2c0.3,0,0.6,0,1.1-0.1c0.5-0.1,0.7-0.1,0.7,0c0,0.1-0.1,0.4-0.4,0.8c-0.2,0.3-0.6,0.7-0.9,1.2
	c-0.4,0.4-0.7,0.8-1.1,1.2c-0.4,0.4-0.6,0.7-0.8,0.8c-0.6,0.6-1.2,1.2-1.7,1.8c-0.5,0.6-1,1.1-1.4,1.6c-0.4,0.5-0.9,1-1.3,1.5
	c-0.4,0.5-0.9,1.1-1.3,1.6c-0.4,0.4-0.5,0.8-0.5,1.2c0,0.3,0.1,0.6,0.3,0.8c1.2,1.5,2.4,2.9,3.5,4.3c1.2,1.4,2.5,2.8,4,4
	c0.1,0.1,0.2,0.1,0.3,0.2c0.1,0.1,0.3,0.1,0.4,0.2c-0.1,0-0.1,0-0.2,0c0,0-0.1-0.1-0.2-0.1h-0.2c-0.1,0-0.2,0-0.2-0.1
	c0-0.1-0.1-0.1-0.2-0.1c0,0.1-0.1,0.1-0.2,0.1c-0.1,0-0.1-0.1-0.1-0.1c-0.1,0.1-0.2,0.1-0.3,0.2c0,0-0.1,0.1-0.2,0.1
	c-0.1,0-0.3,0-0.5-0.1c-0.2,0-0.4-0.1-0.6-0.1c-0.2,0-0.4,0-0.5,0.1c0,0,0.1,0.1,0.1,0.2c0,0-0.1,0.1-0.2,0.1
	c-0.8,0-1.6-0.1-2.3-0.4c-0.7-0.3-1.3-0.7-1.9-1.2c-0.6-0.5-1.2-1-1.7-1.6c-0.5-0.6-1-1.2-1.5-1.7c-0.2,0.7-0.3,1.5-0.4,2.3
	c-0.1,0.8-0.1,1.6-0.1,2.4c0,0.7,0,1.4,0.1,2c0.1,0.6,0.2,1.3,0.4,1.9c0,0.1,0,0.1,0,0.2c0,0,0.1,0,0.1,0.1c0,0,0,0.1-0.1,0.1
	c0,0,0,0,0,0.1c-0.1,0-0.1-0.1-0.1-0.1h-0.1c-0.1,0-0.1,0-0.1,0.1s0,0.1,0,0.2c0,0,0.1,0.1,0.1,0.1l-0.2-0.2c0,0,0,0.1-0.1,0.1
	c-0.1-0.1-0.1-0.1-0.1-0.2c0-0.1,0-0.1-0.2-0.1c0.1,0.1,0.1,0.2,0.1,0.2v0.1c0,0-0.1-0.1-0.3-0.3v0.1c0,0-0.1,0-0.1-0.1
	c0-0.1,0-0.1-0.1-0.2c0.1,0.1,0.1,0.2,0.1,0.3c0,0,0.1,0.1,0.2,0.3c-0.1,0-0.1,0-0.1-0.1l-0.1-0.1V40c0,0-0.1,0-0.2-0.1
	c-0.1-0.1-0.2-0.1-0.2-0.2c0,0.1,0.1,0.2,0.1,0.3c0,0.1,0.1,0.1,0.2,0.2c-0.1,0-0.1,0-0.1,0.1c-0.1-0.1-0.3-0.2-0.4-0.2h-0.1
	c0,0.1,0,0.1,0.1,0.2h-0.1c0,0-0.1,0-0.1-0.1L88.2,40c0,0-0.1,0.1-0.2,0.1c0,0-0.1,0-0.1,0c0,0,0-0.1-0.1-0.1c0,0-0.1,0-0.1,0.1
	c0,0,0.1,0.1,0.1,0.1h-0.2v0.2c0-0.1-0.1-0.2-0.2-0.2c-0.1-0.1-0.2-0.1-0.3-0.2v0.1c0,0.1,0,0.2-0.1,0.3c-0.1-0.2-0.1-0.3-0.2-0.4
	v0.2c0,0,0,0.1-0.1,0.1c-0.1,0-0.2,0-0.2-0.1h-0.1c0,0-0.1-0.1-0.1-0.1c0,0.1-0.1,0.1-0.3,0.2c-0.2,0-0.3,0-0.4,0
	c-0.5,0-0.9-0.2-1.2-0.6c-0.2-0.4-0.4-0.9-0.4-1.4c-0.5-0.2-0.8-0.6-0.9-1.3c-0.1-0.7-0.2-1.4-0.2-2.2c0-2,0.1-4,0.4-5.9
	c0.3-2,0.6-3.9,0.9-5.8c0.3-2.1,0.7-4.2,1.3-6.2c0.6-2.1,1.3-4.1,2.2-6c0.2-0.1,0.4-0.2,0.5-0.3c0.2-0.1,0.4-0.1,0.6,0
	c0.1-0.3,0.2-0.7,0.3-1c0.1-0.3,0.2-0.6,0.3-0.8c0.1-0.2,0.2-0.4,0.4-0.6C90.4,8,90.7,7.9,91,7.9c0.2,0,0.5,0,0.7,0.2
	c0.2,0.1,0.5,0.2,0.7,0.2c0,0,0.1,0,0.1-0.1c0.7,0.1,1.1,0.4,1.2,0.8c0.1,0.4,0.2,0.9,0.2,1.5c0,0.7-0.1,1.4-0.2,2
	c-0.1,0.6-0.3,1.2-0.5,1.8c-0.6,2.3-1.2,4.7-1.6,7c0.6-0.7,1.2-1.4,1.8-2.2c0.7-0.8,1.4-1.6,2.2-2.3c0.8-0.7,1.5-1.3,2.3-1.8
	C98.7,14.5,99.5,14.2,100.2,14.2z M88.9,37.9C89,38,89,38.1,89,38.2c0,0.1,0.1,0.3,0.1,0.4c0.1,0.1,0.1,0.2,0.1,0.3v0.1
	c0.1,0,0.2,0.1,0.2,0.2c0,0.1,0.1,0.1,0.2,0.2c0-0.1-0.1-0.3-0.1-0.4c0-0.2-0.1-0.3-0.1-0.5c0,0,0.1,0,0.1,0c0,0,0,0.1,0.1,0.1
	c0,0,0-0.1,0-0.2c0-0.1,0-0.1,0-0.2c0,0.1-0.1,0.1-0.1,0.1c0,0,0,0,0,0.1l-0.1,0.1c0-0.3-0.1-0.6-0.2-1c-0.1-0.4-0.1-0.7-0.1-0.9
	c0.1,0.1,0.2,0.1,0.2,0.1c0-0.1-0.1-0.2-0.2-0.3c-0.1-0.1-0.1-0.2-0.1-0.4c0,0,0-0.1-0.1-0.1c0,0,0-0.1,0-0.1v-0.1l-0.1-0.1
	c-0.1,0-0.1-0.1-0.1-0.1c0-0.1,0-0.1-0.1-0.2c0,0.1,0,0.2,0.1,0.3h-0.1c0,0-0.1,0.1-0.1,0.1c0,0,0.1,0.1,0.1,0.1c0,0,0,0.1,0.1,0.1
	V36l-0.1,0.1c0-0.2-0.1-0.4-0.2-0.8c0-0.4-0.1-0.6-0.2-0.7c0,0.1-0.1,0.2-0.1,0.4c0,0.1,0.1,0.3,0.1,0.4c0,0.1,0.1,0.3,0.1,0.5
	L88.5,36c0,0.2,0.1,0.3,0.1,0.5c0,0.1,0,0.3-0.1,0.4c0,0-0.1,0.1-0.1,0.1c0.1,0,0.1,0.1,0.1,0.2c0,0,0,0.1-0.1,0.2
	c0.1,0.1,0.1,0.3,0.1,0.4c0,0.1,0,0.3,0.1,0.4c-0.1-0.2-0.2-0.5-0.3-0.9c0-0.4-0.1-0.6-0.2-0.7c0,0.2-0.1,0.3-0.1,0.5
	c0,0.1,0,0.3,0,0.4c-0.1-0.2-0.2-0.5-0.3-0.7c0-0.3-0.1-0.5-0.1-0.6c0,0.1-0.1,0.4-0.2,0.9c0,0.5,0.1,0.9,0.3,1.5
	c0-0.1,0-0.1-0.1,0.1c0,0,0,0.1,0.1,0.2c0.1,0,0.1,0,0.1,0c0,0,0,0,0.1,0c0,0,0.1,0.1,0.2,0.1c-0.1,0.1,0,0.2,0.2,0.3
	c-0.1-0.2-0.1-0.3-0.1-0.3c0.1,0,0.1-0.1-0.1-0.2l0.2-0.1c0.1,0,0.1-0.1,0.1-0.2c0-0.1,0-0.1,0-0.2h0.1c0,0,0,0,0.1,0.1
	c0,0,0,0.1,0.1,0.1l0.1-0.2c0.1,0.1,0.1,0.2,0.1,0.4c0,0.1,0.1,0.3,0.2,0.5c0,0,0-0.1,0.1-0.2v0.1c0,0,0,0.1,0.1,0.1
	c0.1-0.3,0-0.5-0.2-0.5c0,0,0.1,0,0.1,0c0,0,0.1,0,0.1-0.1c0,0,0-0.1-0.1-0.1c0-0.1,0-0.1,0.1-0.2L89,38.1h-0.1
	C88.9,38,88.9,38,88.9,37.9z M88.9,34.4c0.1,0.1,0.1,0.1,0,0.2c0,0.1-0.1,0.1-0.1,0.2l0.1,0.2c0.1,0.1,0.1,0.2,0.1,0.4
	c0,0.1,0,0.2,0.1,0.3c0-0.2-0.1-0.5-0.1-1c0-0.5,0.1-0.9,0.2-1.2c-0.1,0-0.1,0.1-0.2,0.3C89.1,33.9,89,34.2,88.9,34.4z M88.8,36.3
	v0.1c0,0.1,0,0.1-0.1,0.1c0,0.1,0,0.2-0.1,0.3c-0.1-0.1-0.1-0.2,0-0.4C88.8,36.3,88.8,36.3,88.8,36.3L88.8,36.3L88.8,36.3z
	 M89.4,38.9L89.4,38.9c-0.1-0.1-0.1-0.1-0.2-0.1v-0.1c0,0,0-0.1,0.1-0.1C89.5,38.8,89.5,38.8,89.4,38.9z M88.9,37.5
	c-0.1-0.1-0.1-0.2-0.1-0.2C88.9,37.4,88.9,37.4,88.9,37.5C88.9,37.5,88.9,37.5,88.9,37.5z M87.7,36.8v0.2c0,0,0,0.1-0.1,0.1
	c0,0,0,0,0,0.1v0.1c0,0,0,0,0-0.1v-0.1L87.7,36.8z M88.9,37.8v-0.1H89L88.9,37.8L88.9,37.8z M88.1,37.6c0,0-0.1,0.1-0.1,0.1H88v-0.1
	H88.1z M89.5,38.3c0,0-0.1,0.1-0.1,0.1C89.5,38.4,89.5,38.4,89.5,38.3C89.5,38.4,89.5,38.4,89.5,38.3z"/>
<path class="st0" d="M125.9,23.4c0,0.2,0.1,0.4,0.1,0.6c0,0.2,0.1,0.5,0.1,0.8c0,1.2-0.1,2.7-0.4,4.6c-0.2,1.8-0.6,3.9-1,6.1
	c-0.4,2.2-0.9,4.6-1.3,7.1c-0.5,2.5-0.9,4.9-1.3,7.3c-0.4,2.4-0.8,4.8-1.1,7c-0.2,2.2-0.4,4.2-0.4,6c0,0.1,0,0.1-0.1,0.1
	c-0.1,0-0.1,0-0.1-0.1c0,0,0-0.1-0.1-0.1s-0.1,0-0.2,0.1c0,0.1-0.1,0.1-0.2,0.2c0-0.2-0.1-0.3-0.2-0.3c-0.1,0-0.2,0.1-0.3,0.4
	c-0.1,0.3-0.2,0.5-0.3,0.6c-0.4,0-0.6,0.1-0.6,0.3c0,0.2,0,0.3,0.1,0.4h-0.2c0,0-0.1,0-0.1-0.1c0,0-0.1,0-0.2,0.1
	c-0.1-0.1-0.1-0.2-0.1-0.2c-0.2,0-0.3,0.1-0.4,0.2c0,0.2-0.1,0.3-0.2,0.3c0,0-0.1,0-0.1-0.1c0,0,0,0-0.1,0s-0.1,0.1-0.2,0.2
	c0,0.1-0.1,0.3-0.2,0.5h-0.1c-0.1,0-0.1,0-0.2,0.1c0,0.1-0.1,0.1-0.3,0.2c-0.1,0.1-0.3,0.2-0.5,0.3c-0.2,0.1-0.5,0.1-0.9,0.1
	c-0.1,0-0.2,0-0.4-0.1s-0.3-0.2-0.4-0.4c-0.1-0.2-0.3-0.6-0.4-1c-0.1-0.5-0.1-1.1-0.1-2c0-0.2,0-0.3,0-0.5s0-0.3,0.1-0.4v-0.2
	c0-0.2,0.1-0.5,0.2-0.9c0-0.1,0-0.2-0.1-0.3c0-0.1,0-0.2,0-0.3c0-0.1,0.1-0.2,0.2-0.3c0-0.1,0-0.2-0.1-0.3c0-0.1,0-0.2,0-0.3
	c0-0.6,0.1-1.1,0.3-1.6c0.2-0.5,0.3-1,0.3-1.5v-0.4c0-0.4,0.1-0.7,0.2-0.9c0.1-1.2,0.4-2.4,0.6-3.7c0.3-1.3,0.5-2.4,0.5-3.5H116
	c0,0-0.1,0-0.1-0.1c0.1-0.3,0.2-0.7,0.3-0.9c0.1-0.2,0.2-0.5,0.2-0.8h-0.1c0,0-0.1,0-0.1,0.1c0,0.1-0.1,0.1-0.2,0.2
	c0.2-0.9,0.4-2,0.6-3.3c0.2-1.2,0.5-2.5,0.7-3.8c0.2-1.3,0.5-2.6,0.7-3.8c0.2-1.3,0.5-2.4,0.6-3.3c-0.3,0.4-0.7,0.9-1.2,1.3
	c-0.4,0.4-0.9,0.8-1.3,1.2c-0.4,0.3-0.9,0.6-1.4,0.9c-0.5,0.2-0.9,0.3-1.4,0.3c-1.4,0-2.3-0.4-2.8-1.3c-0.5-0.9-0.8-1.9-0.8-3.1
	c0-0.8,0.1-1.6,0.3-2.5c0.2-0.9,0.4-1.8,0.7-2.6s0.6-1.5,0.9-2.2c0.4-0.7,0.7-1.3,1-1.7c0.2-0.2,0.5-0.4,0.8-0.5
	c0.4-0.1,0.8-0.2,1.2-0.2c0.3,0,0.5,0.1,0.7,0.3c0.2,0.2,0.3,0.5,0.3,0.8c0,0.5-0.1,1-0.4,1.7c-0.3,0.6-0.6,1.3-0.9,2.1
	c-0.3,0.8-0.6,1.6-0.9,2.6c-0.3,0.9-0.4,2-0.4,3.1c0,0.4,0.1,0.7,0.2,1c0.1,0.2,0.3,0.4,0.6,0.4c0.5,0,1-0.4,1.7-1.3
	c0.7-0.9,1.3-1.9,2-3.1c0.7-1.2,1.4-2.4,2-3.6c0.7-1.2,1.2-2.1,1.7-2.7c0.2-0.2,0.4-0.4,0.7-0.5c0.3-0.2,0.6-0.3,0.8-0.4
	c0.3-0.1,0.6-0.2,0.8-0.3c0.2-0.1,0.4-0.1,0.4-0.1c0.4,0,0.7,0.2,1.1,0.6C125.5,22.3,125.7,22.8,125.9,23.4z M116.3,51.1
	c0-0.2,0.1-0.3,0.1-0.5c0-0.1,0.1-0.3,0.1-0.4V50c-0.1,0-0.2,0.2-0.3,0.4l-0.1,0.4c0,0.1,0,0.2,0.1,0.3c-0.1,0.3-0.2,0.6-0.3,0.8
	c0,0.1,0.1,0.2,0.1,0.3c0,0.1-0.1,0.2-0.2,0.2v-0.2c0-0.2,0-0.4,0.1-0.6c0.1-0.2,0.1-0.4,0.1-0.6v-0.2c-0.1,0.1-0.1,0.3-0.2,0.4
	c0,0.1-0.1,0.3-0.1,0.5v0.1c-0.1,0.1-0.1,0.2-0.2,0.4c0,0.2-0.1,0.5-0.2,0.7c0,0.3-0.1,0.5-0.1,0.8c0,0.3-0.1,0.5-0.1,0.6
	c0,0.1,0,0.2,0.1,0.3c0,0,0-0.1,0.1-0.1c0.1,0,0.1,0,0.1-0.1v-0.1c0,0,0-0.1,0.1-0.1v0.1c0,0.1,0,0.1-0.1,0.2c0,0,0,0.1,0,0.1h0.1
	c0.1,0,0.2-0.1,0.2-0.3l0.1,0.2c0,0,0.1,0,0.1-0.1c0-0.1,0-0.2-0.1-0.3c0-0.1-0.1-0.1-0.1-0.2h0.1c0,0-0.1-0.1-0.1-0.2
	c0-0.1,0-0.2,0.1-0.3c0.1-0.1,0.1-0.2,0.1-0.3c0-0.1,0-0.1-0.1-0.2c0,0,0,0,0-0.1c-0.1,0.2-0.1,0.3-0.1,0.5c0,0.1,0,0.2-0.1,0.3
	c0,0-0.1,0-0.1-0.1v-0.2c0.1-0.1,0.1-0.2,0.1-0.4c0-0.2,0.1-0.3,0.2-0.4v0.2c0.1-0.1,0.2-0.2,0.2-0.3c0-0.1,0-0.2,0.1-0.3
	c0.1,0,0.1-0.1,0.1-0.1c0,0-0.1-0.1-0.1-0.1v-0.1c0.1-0.1,0.1-0.2,0.1-0.3c0-0.1,0.1-0.2,0.2-0.3c0,0-0.1-0.1-0.1-0.1V51.1z
	 M115.7,59.9c0-0.2,0.1-0.4,0.1-0.6c0.1-0.2,0.1-0.3,0.1-0.5c0-0.2-0.1-0.4-0.3-0.5l-0.1,0.1c0,0-0.1,0-0.1-0.1c0,0,0,0,0,0
	c-0.1,0-0.1,0.1-0.2,0.2c0,0.1,0,0.3,0,0.4c0,0.1,0,0.3,0.1,0.7c-0.1,0.3-0.2,0.6-0.2,0.9c0,0.1,0,0.1,0,0.2c0,0,0.1,0.1,0.1,0.2
	c0.1-0.2,0.1-0.3,0.2-0.4c0.1-0.1,0.1-0.2,0.1-0.3c0,0,0-0.1-0.1-0.1c0,0,0,0,0-0.1c0,0,0.1,0,0.1,0c0,0,0,0.1,0.1,0.1
	C115.6,59.9,115.6,59.9,115.7,59.9z M115.6,55.2c-0.1,0.1-0.2,0.1-0.2,0.2s0,0.1,0.1,0.1h0.1c0,0.1-0.1,0.2-0.1,0.3
	c0,0.1-0.1,0.3-0.2,0.4V56l-0.1-0.1c-0.1,0.3-0.2,0.7-0.2,1v0.3c0.1-0.1,0.1-0.2,0.1-0.4c0-0.2,0.1-0.3,0.2-0.4c0,0-0.1-0.1-0.1-0.1
	c0,0,0-0.1-0.1-0.1c0,0,0,0,0-0.1c0.1-0.1,0.2-0.2,0.3-0.3c0,0.1-0.1,0.3-0.1,0.5c0,0.1,0,0.1,0.1,0.2c0.1-0.1,0.2-0.3,0.2-0.6v-0.2
	c0.1-0.1,0.1-0.1,0.1-0.2v-0.1c0-0.1-0.1-0.1-0.1-0.2c0-0.1,0-0.1-0.1-0.2l-0.2,0.5c0-0.1,0-0.1-0.1-0.2v-0.1c0,0,0-0.1,0-0.1
	C115.6,55.3,115.6,55.2,115.6,55.2z M114.5,59.2c0.1-0.1,0.1-0.3,0.1-0.5c0-0.2,0.1-0.4,0.1-0.6V58c0.1-0.2,0.1-0.3,0.2-0.5
	c0.1-0.1,0.1-0.2,0.1-0.4v-0.2c-0.1,0-0.2,0.1-0.3,0.3c-0.1,0.2-0.1,0.4-0.2,0.6c0,0.2-0.1,0.5-0.1,0.7c0,0.2,0,0.4,0,0.5
	C114.4,59.2,114.4,59.2,114.5,59.2L114.5,59.2z M115,55.7c-0.1,0.2-0.2,0.5-0.2,1v0.2c0.1,0,0.1-0.1,0.1-0.3c0-0.2,0.1-0.4,0.1-0.6
	c0-0.2,0.1-0.4,0.1-0.6c0-0.2,0.1-0.3,0.3-0.3c-0.1-0.2-0.1-0.3-0.2-0.4c0,0,0,0,0,0c-0.2,0-0.3,0.2-0.3,0.7V55.7z M116.6,49.4
	c0.1-0.6,0.2-1.1,0.4-1.7c-0.2,0.1-0.4,0.3-0.4,0.6c-0.1,0.3-0.1,0.6-0.1,0.8v0.1l-0.1,0.1c0.1,0.1,0.1,0.1,0.1,0.2
	c0,0.1,0,0.1,0.1,0.1s0.1,0,0.1-0.1C116.5,49.4,116.5,49.4,116.6,49.4z M114.8,62.7c0.1,0,0.1-0.1,0.1-0.2v-0.3c0-0.1,0-0.2,0.1-0.3
	c-0.1,0-0.2,0.1-0.2,0.1c0,0.1,0,0.1-0.1,0.1c0-0.2,0-0.3,0-0.4c0-0.1,0-0.2-0.1-0.4c0,0.1-0.1,0.3-0.1,0.5v0.7
	c0.1,0.1,0.1,0.1,0.2,0.1C114.7,62.6,114.8,62.6,114.8,62.7z M114.8,60.3c0-0.1,0-0.2,0.1-0.4c0-0.1,0.1-0.3,0.1-0.4l-0.1-0.1
	c0-0.1,0-0.1,0.1-0.2c0,0,0.1,0,0.1-0.1c0,0,0-0.1-0.1-0.2c0-0.1,0-0.1,0.1-0.2c0,0,0.1-0.1,0.1-0.2c0,0,0-0.1-0.1-0.1
	c0,0.2-0.1,0.3-0.2,0.5c0,0.2-0.1,0.4-0.1,0.6c0,0,0.1,0.1,0.1,0.2c0,0.1,0,0.2-0.1,0.3c0,0.1-0.1,0.2-0.1,0.3v0.1
	c0.1,0,0.1-0.1,0.1-0.1v-0.1C114.7,60.4,114.7,60.4,114.8,60.3z M114.4,61.6C114.4,61.6,114.4,61.5,114.4,61.6c0-0.1,0-0.1,0-0.1
	v-0.1c0-0.2,0-0.5,0.1-0.8c0-0.3,0.1-0.6,0.2-0.8l-0.2,0.1c0,0.1,0,0.3-0.1,0.4c0,0.1,0,0.3,0,0.5v0.2c0,0.1-0.1,0.2-0.1,0.3
	C114.3,61.1,114.3,61.3,114.4,61.6z M117.1,45.1c0.1-0.1,0.1-0.2,0.2-0.4c0.1-0.1,0.2-0.3,0.2-0.5v-0.1c-0.1,0-0.2,0.1-0.3,0.4
	C117.1,44.7,117.1,44.9,117.1,45.1z M116.3,49.3c0-0.2,0-0.4,0.1-0.6c0.1-0.2,0.1-0.4,0.1-0.6c0,0.1-0.1,0.2-0.2,0.3
	c0,0.1-0.1,0.2-0.1,0.3c0,0.1,0,0.2,0.1,0.2c-0.1,0-0.1,0.1-0.1,0.2C116.1,49.1,116.2,49.2,116.3,49.3z M115.7,59.5
	c-0.1,0.1-0.1,0.1-0.2,0.1c-0.1,0-0.1-0.1-0.1-0.2c0-0.2,0.1-0.4,0.2-0.5c0,0.1,0,0.2,0,0.3C115.7,59.2,115.7,59.3,115.7,59.5z
	 M115.9,50.5c0.1-0.2,0.2-0.3,0.2-0.5c0-0.1,0-0.2,0.1-0.4c-0.1,0.1-0.1,0.2-0.2,0.3c0,0.1-0.1,0.2-0.1,0.4V50.5z M115,63.9
	c0-0.1,0-0.1-0.1-0.2c0-0.1,0-0.1,0-0.2c-0.1,0.1-0.1,0.1-0.1,0.2c0,0.1,0,0.1-0.1,0.2c0.1,0,0.1,0,0.1,0.1c0,0.1,0.1,0.1,0.2,0.1
	V63.9z M115.6,63.2c0.1-0.1,0.1-0.2,0.1-0.3c0-0.1,0.1-0.1,0.1-0.2l-0.2,0.1c0,0,0,0.1-0.1,0.1c0,0.1,0,0.1,0,0.2
	C115.6,63.1,115.6,63.1,115.6,63.2z M114.9,57.6c0,0.2,0,0.3,0.1,0.4c0.1,0,0.1-0.1,0.1-0.2v-0.2H114.9z M115.9,55
	c0-0.1,0.1-0.2,0.1-0.3c0.1-0.1,0.1-0.2,0.1-0.3l-0.2,0.1c0,0.1,0,0.2-0.1,0.2c0,0.1,0,0.1,0,0.2V55z M114.6,59.6
	c0,0-0.1-0.1-0.1-0.1v-0.2c0,0-0.1,0.1-0.1,0.1c0,0-0.1,0-0.1,0.1c0,0,0,0,0,0.1c0,0.1,0,0.1,0.1,0.1H114.6z M115,59.6
	c0.1-0.1,0.1-0.2,0.1-0.3c0-0.1,0-0.1-0.1-0.2c0,0,0-0.1,0-0.1v0.1c0,0.1,0,0.1-0.1,0.2c0,0.1-0.1,0.1-0.1,0.2
	C115,59.6,115,59.6,115,59.6z M116.8,46.4c0-0.1,0-0.1,0-0.2c0,0,0.1,0,0.1-0.1c0,0-0.1,0-0.2,0.1c-0.1,0.1-0.1,0.1-0.1,0.2
	L116.8,46.4z M115.7,60.3c0.1,0,0.1,0,0.1-0.1c0,0,0-0.1-0.1-0.1c0,0,0,0,0-0.1l-0.2,0.1L115.7,60.3z M114.4,61.7l-0.2,0.1
	c0,0-0.1,0-0.1,0.1s0,0.1,0.1,0.1c0,0.1,0.1,0.1,0.1,0.2L114.4,61.7z M116,56.2c0-0.1,0-0.1,0.1-0.2c0,0,0.1-0.1,0.1-0.2
	c0-0.1,0-0.1-0.1-0.2V56.2z M114.7,63c0,0.1,0,0.1,0.1,0.2c0.1,0.1,0.1,0.1,0.1,0.1c0,0,0.1,0,0.1-0.1c0-0.1,0-0.1,0-0.1
	c0,0,0,0-0.1-0.1H114.7z M114.8,58.6c0.1,0,0.2,0,0.2-0.1v-0.1C114.8,58.4,114.8,58.5,114.8,58.6z M115.6,55.8c0-0.1,0-0.2,0.1-0.3
	v0.1c0,0,0,0.1-0.1,0.1C115.6,55.7,115.6,55.8,115.6,55.8z"/>
<path class="st0" d="M145.6,22.4l-0.6,0.2l0.3,0.2l-0.1,0.1c-0.6,0-1.1,0.1-1.6,0.3c-0.5,0.2-1,0.4-1.4,0.5c0.1-0.2,0.1-0.3-0.1-0.1
	c-0.1,0.2-0.2,0.3-0.4,0.3c0,0-0.1,0.2-0.4,0.4c-0.2,0.2-0.4,0.2-0.3,0c-0.2,0.2-0.4,0.3-0.6,0.4c-0.2,0.1-0.3,0.1-0.4,0.2
	c-0.1,0.1-0.1,0.1-0.1,0.2c0,0-0.1,0.1-0.2,0.1c0,0,0,0,0,0.1c0,0,0,0-0.1,0c-0.4,0.3-0.9,0.5-1.4,0.6c-0.5,0.1-0.9,0.1-1.3,0.1
	v-0.2c0,0,0-0.1-0.1-0.1l-0.2,0.1c0.2,1.3,0.3,2.4,0.3,3.4c0.1,1-0.1,2.1-0.4,3.3c0,0.1,0,0.2-0.1,0.4s-0.1,0.4-0.2,0.6
	c0,0.2-0.1,0.5-0.2,0.7c-0.1,0.2-0.2,0.4-0.3,0.5c-0.2,0.3-0.3,0.6-0.4,0.9c-0.1,0.3-0.2,0.6-0.4,0.8c-0.2,0.2-0.5,0.5-0.8,0.8
	c-0.4,0.3-0.9,0.6-1.7,0.9c-0.2,0.1-0.4,0.1-0.6,0.1c-0.2,0-0.5,0-0.8-0.1c-0.3,0-0.8-0.2-1.3-0.5c-0.5-0.3-0.8-0.7-1.1-1.2
	c-0.5-1.1-0.7-2.2-0.7-3.5c0-1.3,0.1-2.4,0.3-3.4c0.2-1,0.6-2.2,1.1-3.4c0.5-1.3,1.2-2.4,1.9-3.5c0.8-1,1.6-1.9,2.6-2.5
	c1-0.7,2.1-0.9,3.3-0.8c0.1,0,0.4,0,0.8,0.1c0.4,0,0.8,0.1,1.2,0.3c0.4,0.1,0.7,0.2,0.9,0.4c0.2,0.2,0.2,0.4-0.1,0.6
	c-0.3,0.1-0.5,0.1-0.7,0.1c-0.1-0.1-0.3-0.1-0.5-0.1c-1.6,0.7-3,2-4,3.9c-1.1,1.8-1.9,3.9-2.4,6.2c-0.1,0.7-0.3,1.5-0.4,2.4
	c-0.1,0.9,0,1.7,0.2,2.6c2.1-3.1,3.3-6.4,3.4-10v-0.4c0-0.1,0-0.1,0.1-0.2c0.1-0.1,0.1-0.1,0.1-0.2c0-0.1-0.1-0.1-0.2-0.2
	c-0.1-0.1-0.1-0.1-0.1-0.2c-0.1-0.2,0-0.3,0.2-0.3c0.2,0,0.4,0,0.5,0.2c0.6-0.1,1.2-0.3,1.7-0.5c0.6-0.2,1.1-0.5,1.7-0.7
	c0.6-0.2,1.1-0.4,1.5-0.6c0.4-0.2,0.8-0.3,1.2-0.4c0.4-0.1,0.8-0.1,1.3-0.2c0.5-0.1,1-0.1,1.7-0.2v0.1l-1.2,0.3L145.6,22.4
	L145.6,22.4z M143.2,23c0.6-0.2,1.1-0.3,1.5-0.3c-0.2-0.1-0.5-0.1-0.8,0c-0.3,0-0.5,0.1-0.8,0.1L143.2,23z M144.1,22.4
	c0,0,0.1,0,0.1-0.1c0.1,0,0-0.1-0.1-0.1c-0.1,0.1-0.1,0.1-0.2,0.1c0,0-0.1-0.1-0.2-0.1c0,0.1-0.1,0.1-0.1,0.1h-0.1
	C143.7,22.5,143.9,22.5,144.1,22.4z M142.8,22.8c-0.1,0-0.2,0-0.3,0.1c0,0-0.1,0.1-0.1,0.1c0,0,0.1,0,0.2,0
	C142.7,23,142.8,22.9,142.8,22.8z M143,23.1c0.1,0,0.1-0.1,0.1-0.2l-0.1,0.1C142.9,23,142.9,23.1,143,23.1z M142.8,23.1
	c0,0-0.1,0.1-0.1,0.1c-0.1,0.1-0.1,0.1-0.1,0.1C142.8,23.2,142.8,23.2,142.8,23.1z"/>
<path class="st0" d="M165.3,25.1c0.1-0.1,0.2-0.3,0.4-0.5c0.1-0.2,0.3-0.4,0.4-0.6c0.1-0.1,0.3-0.2,0.4-0.2c0.1,0,0.2,0.1,0.3,0.3
	c0,0.1,0.1,0.2,0.2,0.3c0.1,0.1,0.1,0.2,0.2,0.4c0.1,0.6,0,1.1-0.2,1.7c-0.4,0.7-0.9,1.6-1.6,2.7c-0.7,1-1.4,2.1-2.3,3.1
	c-0.8,1-1.8,1.8-2.7,2.6c-0.9,0.7-1.9,1.1-2.9,1.2c-2,0.1-3.5-0.4-4.4-1.4c-0.9-1-1.3-2.6-1.3-4.8v-0.3c-0.5,0.9-1.1,1.8-1.6,2.7
	c-0.6,0.8-1.2,1.6-1.8,2.2c-0.6,0.6-1.2,1.1-1.9,1.5c-0.6,0.3-1.3,0.5-2,0.5c-0.3,0-0.6-0.1-1-0.3c-0.4-0.2-0.7-0.5-1.1-0.7
	c-0.3-0.3-0.6-0.6-0.9-0.9c-0.2-0.3-0.4-0.7-0.5-1c-0.1-0.3-0.2-0.8-0.3-1.2c0-0.5-0.1-1-0.1-1.5c0-1,0.1-2,0.2-3
	c0.2-1.1,0.4-2.1,0.7-3.1c0.3-1,0.6-1.9,0.9-2.7c0.4-0.8,0.8-1.4,1.2-1.8c0.5-0.5,1-0.8,1.6-0.9c0.6-0.1,1.1-0.2,1.6-0.2
	c0,0.1,0.2,0.3,0.4,0.4c0.2,0.1,0.4,0.2,0.6,0.3c0.2,0.1,0.5,0.2,0.6,0.4c0.2,0.1,0.3,0.2,0.3,0.4c0,0.3-0.1,0.7-0.2,1
	c-0.1,0.3-0.2,0.6-0.3,0.7c0,0.1-0.1,0.4-0.3,0.9c-0.1,0.5-0.3,1.2-0.5,1.9c-0.2,0.7-0.4,1.5-0.6,2.4c-0.2,0.8-0.3,1.6-0.5,2.4
	c-0.1,0.7-0.2,1.3-0.2,1.8c0,0.5,0.1,0.7,0.3,0.7c0.1,0,0.2,0,0.2-0.1c0.4-0.3,0.8-0.9,1.2-1.5c0.5-0.7,0.9-1.4,1.4-2.1
	c0.5-0.8,1-1.6,1.5-2.5c0.5-0.8,1-1.6,1.5-2.4c0.5-0.7,0.9-1.4,1.2-1.9c0.4-0.5,0.6-0.9,0.8-1c0.5-0.4,0.9-0.6,1.5-0.7h0.1h0.1
	c0.1,0,0.3,0,0.6,0c0.3,0,0.7,0.1,1,0.2c0.3,0.1,0.6,0.2,0.8,0.4c0.2,0.2,0.3,0.5,0.2,0.9c-0.1,0.2-0.2,0.7-0.4,1.5
	c-0.1,0.8-0.3,1.7-0.5,2.7c-0.2,1-0.3,2-0.5,3c-0.1,1-0.2,1.9-0.2,2.7c0,0.8,0,1.4,0.1,1.8c0.1,0.4,0.3,0.6,0.5,0.6
	c0.3,0,0.8-0.3,1.4-0.9c0.7-0.7,1.4-1.4,2.1-2.4c0.8-0.9,1.5-1.9,2.3-2.9C164.1,26.8,164.8,25.9,165.3,25.1z"/>
<path class="st0" d="M168.3,36.6c0.5,0.5,0.7,0.9,0.6,1.2c0,0.3-0.1,0.8-0.3,1.4c0.1,0.2,0,0.4-0.2,0.7c-0.2,0.2-0.4,0.3-0.6,0.3
	c-0.4,0.1-0.7,0.2-1.2,0.3c-0.4,0.1-0.8,0.1-1.2,0.1c-0.4,0-0.8-0.1-1.1-0.3c-0.3-0.2-0.6-0.5-0.8-0.9c-0.2-0.5-0.1-0.9,0.3-1.4
	c0.4-0.5,0.8-0.9,1.3-1.2c0.6-0.3,1.1-0.5,1.7-0.6C167.4,36.1,167.9,36.3,168.3,36.6z M172.9,4.4c0.2,0.9,0.2,1.8-0.2,2.7
	c0.1,0.3,0.1,0.8,0,1.3c-0.1,0.5-0.2,1-0.3,1.5c-0.1,0.5-0.3,1-0.4,1.5c-0.1,0.5-0.2,0.8-0.3,1.2c-0.2,1.4-0.4,3-0.7,4.8
	c-0.3,1.8-0.6,3.7-0.9,5.4c-0.3,1.7-0.6,3.3-0.9,4.8c-0.3,1.4-0.6,2.4-0.8,2.9c-0.2,0.4-0.3,0.8-0.5,1.1c-0.1,0.3-0.2,0.5-0.3,0.8
	c-0.1,0.2-0.1,0.3-0.1,0.4c-0.2-0.5-0.4-0.8-0.5-0.9c-0.1-0.1-0.2,0.2-0.3,1c-0.3-0.1-0.6-0.3-0.7-0.6c-0.1-0.4-0.2-0.8-0.3-1.3
	c0-0.5-0.1-1-0.1-1.6c0-0.6,0-1.1-0.1-1.5c0-1.4,0-3,0.1-4.7c0.1-1.7,0.3-3.5,0.5-5.4c0.2-1.8,0.5-3.7,0.8-5.6
	c0.3-1.9,0.7-3.7,1.1-5.4c0.1-0.4,0.3-0.8,0.5-1.3c0.2-0.5,0.6-0.8,1.1-0.8c0.1,0,0.2,0,0.3-0.1c0.1-0.1,0.2-0.1,0.3-0.1
	c0.1-0.1,0.2-0.2,0.4-0.2c0,0,0.2-0.1,0.5-0.2c0.3-0.2,0.6-0.3,0.8-0.4l0.1-0.1c0,0,0.1,0,0.1,0c0,0,0.1-0.1,0.2-0.1
	c0.3,0,0.5,0.1,0.6,0.3C172.8,3.9,172.8,4.2,172.9,4.4z"/>
<g>
	<rect y="6" class="st1" width="173" height="68"/>
	<path d="M21.8,14.1c-0.3-1.2-0.8-2.5-1.2-3.1c-0.6-0.9-0.9-1.2-2.9-1.2h-3.4v17.4c0,2.8,0.3,3.2,3.7,3.4v1.1H7.2v-1.1
		c3.3-0.2,3.6-0.6,3.6-3.4V9.8H7.7c-2,0-2.6,0.2-3.2,1.3c-0.4,0.7-0.8,1.7-1.2,3H2.2c0.2-2.3,0.4-4.6,0.5-6.6h0.9
		c0.5,0.9,0.9,0.8,2,0.8h14.3c1,0,1.3-0.2,1.9-0.8h0.9c0,1.7,0.2,4.4,0.3,6.5L21.8,14.1z"/>
	<path d="M35,31.8v-1c2-0.2,2.3-0.4,2.3-2.7v-6c0-2.9-1.2-4.4-3.4-4.3c-1.3,0-2.6,0.6-3.6,1.7V28c0,2.3,0.3,2.5,2.3,2.7v1h-8v-1
		c2-0.2,2.5-0.4,2.5-2.7V10.8c0-1.9-0.1-2.3-2.5-2.6v-1c2-0.2,4.3-0.7,5.6-1.2c0,1.4,0,2.9,0,4.4v7.7c1.3-1.3,3.2-2.6,5.2-2.6
		c3,0,5,1.9,5,6.1V28c0,2.4,0.3,2.5,2.3,2.7v1H35z"/>
	<path d="M56.4,32.2c-0.6,0-1.4-0.3-1.8-0.7c-0.5-0.5-0.7-1-0.9-1.6c-1.4,1-3.2,2.3-4.2,2.3c-2.7,0-4.5-2.2-4.5-4.5
		c0-1.8,1-2.9,2.9-3.6c2.2-0.8,4.9-1.7,5.7-2.3v-0.9c0-2.4-1.2-3.8-3-3.8c-0.8,0-1.3,0.4-1.6,0.8c-0.4,0.5-0.6,1.3-1,2.3
		c-0.2,0.6-0.6,0.9-1.1,0.9c-0.7,0-1.7-0.7-1.7-1.6c0-0.5,0.5-1,1.2-1.5c1.1-0.8,3.2-2.1,5.3-2.5c1.1,0,2.3,0.3,3.1,1
		c1.3,1.1,1.9,2.4,1.9,4.2v6.8c0,1.7,0.6,2.2,1.2,2.2c0.4,0,0.9-0.2,1.3-0.4l0.4,1L56.4,32.2z M53.6,23.1c-0.8,0.4-2.3,1.1-3.1,1.4
		c-1.3,0.6-2.1,1.3-2.1,2.6c0,1.9,1.4,2.8,2.5,2.8c0.9,0,2-0.5,2.7-1.2C53.6,27,53.6,24.8,53.6,23.1z"/>
	<path d="M71.4,31.8v-1c2-0.2,2.2-0.4,2.2-2.9v-6c0-2.5-1-4.1-3.1-4.1c-1.4,0-2.7,0.8-3.8,1.7V28c0,2.4,0.2,2.5,2.2,2.7v1H61v-1
		c2.3-0.3,2.5-0.4,2.5-2.8v-7.4c0-2.3-0.3-2.4-2.1-2.7v-1c1.8-0.3,3.7-0.7,5.3-1.4c0,0.8,0,1.9,0,2.8c0.7-0.5,1.5-1,2.4-1.6
		c1-0.6,1.9-1.1,3-1.1c2.9,0,4.7,2.1,4.7,5.6V28c0,2.4,0.2,2.5,2.2,2.7v1H71.4z"/>
	<path d="M98.8,31.8c-2.1,0-4.3,0-5.1,0.1c-0.2-0.2-5.6-6.9-5.8-7.2c-0.5-0.5-0.7-0.7-1-0.7c-0.1,0-0.4,0-0.6,0.1v4
		c0,2.4,0.2,2.5,2.4,2.8v1h-8.1v-1c2.3-0.2,2.5-0.4,2.5-2.8V10.9c0-2.3-0.2-2.4-2.4-2.7v-1C82.6,7,84.8,6.5,86.2,6c0,1.5,0,3,0,4.5
		V23c1-0.2,1.7-0.7,2.3-1.3c0.8-0.8,2.2-2.5,2.7-3.3c0.7-1,0.4-1.3-1.3-1.5v-1l7.5-0.3v1c-2.5,0.4-3.3,0.7-4.8,2.3
		c-0.7,0.7-2.1,2.4-2.9,3.3c0.8,1.1,4.4,5.3,5.5,6.6c1.6,1.7,2.1,1.8,3.5,1.9V31.8z"/>
	<path d="M127.3,9.4c-2.5,0.3-3,0.7-4.4,3c-1.6,2.6-2.9,4.9-4.6,8.2c-0.4,0.8-0.5,1.2-0.5,2.1v4.4c0,3,0.3,3.2,3.6,3.5v1.1h-10.5
		v-1.1c3.2-0.4,3.5-0.5,3.5-3.5v-4.6c0-0.7-0.1-1.1-0.7-2c-1.2-2.3-2.5-4.6-4.4-8c-1.4-2.4-1.8-2.9-4.2-3.1V8.4h9.2v1.1
		c-2.6,0.4-2.4,0.8-1.8,2.1c1.5,2.7,3.1,5.9,4.6,8.6c1.3-2.3,3.2-6.2,4.3-8.2c0.8-1.7,0.7-2.1-2.1-2.4V8.4h8.2V9.4z"/>
	<path d="M132.1,15.5c4.6,0,7.9,3.5,7.9,8.1c0,5.8-4.3,8.6-8,8.6c-5.1,0-8.1-4-8.1-8.1C124,18.3,128.6,15.5,132.1,15.5z M131.7,16.8
		c-2.1,0-4,2-4,6.3c0,4.6,1.9,7.9,4.7,7.9c2.1,0,3.9-1.5,3.9-6.5C136.4,20.1,134.7,16.8,131.7,16.8z"/>
	<path d="M160.1,30.9c-1.8,0.3-3.8,0.7-5.7,1.3c0-0.6,0-1.8,0-2.7c-1.9,1.5-3.4,2.7-5.4,2.7c-2.5,0-4.5-1.6-4.5-5.4v-7.1
		c0-1.9-0.3-2.1-1.2-2.3l-1-0.2v-1c1.6-0.1,4.1-0.4,5.4-0.6c-0.1,1.2-0.1,3-0.1,5.3v5c0,3,1.6,3.9,3.1,3.9c1.3,0,2.5-0.5,3.7-1.6
		v-8.4c0-1.9-0.4-2.2-1.6-2.3l-1.1-0.2v-1c2.3-0.1,4.9-0.5,5.9-0.6v12c0,1.8,0.3,2.1,1.6,2.2l1,0V30.9z"/>
	<path d="M167.4,32.3c-1.4,0-2.3-1-2.3-2.4c0-1.4,1-2.4,2.3-2.4c1.4,0,2.4,1,2.4,2.4C169.8,31.3,168.8,32.3,167.4,32.3z M167.4,7.9
		c1,0,2.2,0.2,2.3,1.3c0,0.4,0,0.9-0.1,1.4c-0.3,2.7-1,9-1.4,13.3h-1.5c-0.4-4.3-1.1-10.5-1.4-13.3c0-0.5-0.1-1.1-0.1-1.5
		C165.2,8.1,166.3,7.9,167.4,7.9z"/>
</g>
</svg>
